%YAML 1.1
%TAG !u! tag:unity3d.com,2011:
--- !u!21 &2100000
Material:
  serializedVersion: 3
  m_ObjectHideFlags: 0
  m_PrefabParentObject: {fileID: 0}
  m_PrefabInternal: {fileID: 0}
  m_Name: StormClouds
  m_Shader: {fileID: 4800000, guid: 9e5ad82c327213c418a6b154519214e5, type: 3}
  m_ShaderKeywords: []
  m_SavedProperties:
    serializedVersion: 2
    m_TexEnvs:
      data:
        first:
          name: _NoiseTexture
        second:
          m_Texture: {fileID: 0}
          m_Scale: {x: 1, y: 1}
          m_Offset: {x: 0, y: 0}
    m_Floats:
      data:
        first:
          name: _CloudCover
        second: -3
      data:
        first:
          name: _SunAngle
        second: 1
      data:
        first:
          name: _PrecipLevel
        second: -4.45203781
      data:
        first:
          name: _GlowVar
        second: .87555331
      data:
        first:
          name: _ViewDistance
        second: 3
      data:
        first:
          name: _StormCenter
        second: 0
    m_Colors:
      data:
        first:
          name: _Speed
        second: {r: .300000012, g: .300000012, b: .300000012, a: 0}
      data:
        first:
          name: _ColorVar1
        second: {r: 0, g: 0, b: 0, a: 1}
      data:
        first:
          name: _ColorVar2
        second: {r: 0, g: 0, b: 0, a: 1}
      data:
        first:
          name: _SunColor
        second: {r: .927041173, g: .914043427, b: .892294884, a: 1}
      data:
        first:
          name: _v3CameraPos
        second: {r: 0, g: 0, b: 0, a: 1}
      data:
        first:
          name: _StormCenter
        second: {r: 0, g: 0, b: 0, a: 0}
--- !u!1002 &2100001
EditorExtensionImpl:
  serializedVersion: 6
